Final Project Written Report
…
# Extracting predicted values and standard deviation of residuals from fitted model
logit_predict <- predict(model)
resid_sigma <- sigma(model)

# Testing function and creating a set of simulated observations
sim_logit <- tibble(sim_logit_meanaccess = addnoise(x = logit_predict, sd = resid_sigma))
sim_logit

# A tibble: 194 × 1
   sim_logit_meanaccess
                  <dbl>
 1                3.03 
 2                2.53 
 3                0.406
 4                4.25 
 5                1.54 
 6                2.88 
 7                1.89 
 8                1.53 
 9                4.00 
10                1.61 
# ℹ 184 more rows
…
